<svg xmlns="http://www.w3.org/2000/svg" xmlns:xlink="http://www.w3.org/1999/xlink" width="176" height="58" viewBox="0 0 176 58">
    <defs>
        <path id="prefix__a" d="M0.413 57.247L175.949 57.247 175.949 0.128 0.413 0.128z"/>
    </defs>
    <g fill="none" fill-rule="evenodd">
        <path fill="#F16526" d="M1.558 48.374l-.882 2.16c-.103.208-.093.45.032.62.162.223.456.24.508.243h.611l.49-4.278.098-.85-.198.488-.66 1.617z"/>
        <path fill="#C83227" d="M19.828 5.85c-.383 0-.802.219-1.067.532l1.861-.533h-.794z"/>
        <path fill="#0098CD" d="M31.714 7.493l1.133-.323c.043-.013.082-.033.122-.05l-1.258.36.003.013z"/>
        <path fill="#FA0" d="M14.505 45.402c-.06.016-.12.026-.182.033l-.04.118 1.549-.442-.024-.082-1.303.373z"/>
        <path fill="#F7961D" d="M19.703 15.197l.793-1.946.852-7.401h-.726l-1.862.532c-.085.102-.157.214-.203.331l-.398.972-.217 1.9 1.581 5.663.18-.051z"/>
        <path fill="#E74A25" d="M77.645 43.55l-.945-3.377-1.435.41c.445.063.793.449.793.917v4.537c0 .342-.184.639-.456.8l.325 1.166 2.742-.786-1.024-3.666zM38.291 15.338L37.579 15.338 37.632 15.526zM67.738 37.19v2.445c0 .51.414.935.921.935h.126l-1.011-3.624c-.022.078-.036.16-.036.244"/>
        <path fill="#F16526" d="M57.027 15.011c.048-.057.09-.116.126-.182h-.011l-.155.044.04.138z"/>
        <path fill="#C83227" d="M9.504 40.225L9.723 38.318 8.236 32.998 7.683 37.826 8.821 41.9zM30.374 17.28c.01-.09.034-.18.063-.272l-.13.038.067.235z"/>
        <path fill="#FA0" d="M63.09 19.139l-.168-.602c-.049.041-.102.078-.158.11l.139.492h.186zM17.942 9.584L17.216 15.908 19.523 15.248z"/>
        <path fill="#1C9FCF" d="M28.83 8.318l2.884-.825-.003-.013-2.759.79c-.044.01-.081.03-.122.048"/>
        <path fill="#FA0" d="M61.27 19.108c.016.01.03.019.046.031h1.587l-.138-.492c-.073.039-.148.075-.231.099l-1.264.362z"/>
        <path fill="#F7961D" d="M33.575 5.851V5.85H29.15c-.507 0-.923.418-.923.932V8.49l.603-.172c.041-.017.079-.037.122-.048l2.76-.79 1.257-.359c.481-.207.751-.75.606-1.27"/>
        <path fill="#ED8622" d="M14.283 45.553l-.24.658c-.175.48-.73.875-1.24.875H7.631c-.103 0-.191-.018-.27-.048l1.17 4.189c.017.06.04.116.066.17h3.166l1.262-.36.014-.181c.045-.584.536-1.192 1.096-1.354l2.262-.645.14-1.22-.705-2.525-1.55.44z"/>
        <path fill="#F7961D" d="M8.821 41.9L7.683 37.826 7.394 40.335 6.84 45.174 7.102 46.115 8.234 43.339z"/>
        <path fill="#E74A25" d="M30.23 17.068l-.838.24-1.165.335v.571l.958-.273c.124-.035.252-.043.374-.032.194.016.375.087.531.2l.194-.055.065-.557.025-.216-.067-.235-.078.022z"/>
        <path fill="#F7961D" d="M16.467 22.432L16.355 23.414 16.584 22.849 16.786 22.357 16.565 21.57z"/>
        <path fill="#F16526" d="M65.592 12.412l-1.374.392v1.092c0 .513-.415.933-.921.933h-.76l.728 2.6c.08.289.032.585-.108.828-.062.105-.141.201-.235.28l.167.602h.117c.044-.061.092-.12.149-.173.118-.11.26-.198.423-.244l.38-.108 2.932-.84-1.498-5.362zM63.757 5.849L60.028 5.849 60.526 7.629 63.979 6.639zM52.144 16.258L52.144 16.592 52.383 16.526 52.297 16.215zM9.504 40.225L9.95 39.128 9.723 38.318zM15.548 14.083l-.252.62-.587 1.437-1.133 2.775L14.58 22.5l.412 1.478 1.281-.366.081-.2.113-.98.098-.862-1.128-4.044c-.117-.416.03-.844.34-1.107.11-.095.24-.168.388-.21l1.05-.302.727-6.324.217-1.899-.444 1.088-2.167 5.31z"/>
        <path fill="#E74A25" d="M30.26 18.263l.024-.209-.194.055c.061.046.119.097.17.154"/>
        <path fill="#C83227" d="M33.891 50.207L34.228 51.397 38.373 51.397 38.494 49.673 38.292 48.95zM60.268 47.179l.728-.21h-3.67c-.058 0-.115-.006-.17-.015l.6 2.14.637 2.303h1.962c-.013-.031-.026-.059-.036-.092l-.78-2.808c-.16-.565.168-1.158.729-1.318M41.586 16.26l-.256-.922H38.29l-.659.188.11.396.052.183.32 1.149.017.06c.004.017.004.03.008.044l1.006-.287 2.47-.707-.029-.104zM56.404 44.262L56.404 43.769 56.277 43.806zM68.66 36.256c-.365 0-.678.218-.827.529-.024.05-.045.105-.06.161l1.012 3.624h.06l-.56-2.008c-.028-.096-.035-.193-.035-.287-.003-.467.298-.899.763-1.032l.324-.093 2.237-.64.695-.2.193-.054h-3.803zM75.602 46.836c-.137.083-.296.134-.466.134h-1.063l.294 1.056.394-.115.17-.048c.32-.094.65-.019.902.166l.094-.026-.325-1.167zM55.315 33.284l-.042-.148-1.31.376-.522.147.042.148.138.492 1.06 3.798.128.46.138.49.003.013.521-.15.294-.084c.04-.012.077-.03.112-.045.23-.095.413-.264.527-.473v-1.126l-.952-3.406-.137-.492zM30.259 18.264l-.16 1.384h-.949c-.508 0-.923-.417-.923-.932v-.5l.96-.275c.122-.036.25-.044.372-.033.195.017.376.087.531.201.061.046.12.097.169.155M68.477 18.242c.001-.013.004-.025.004-.036v-.83l-.758.218-.633.18-2.931.84-.38.108c-.164.046-.306.134-.424.244-.057.053-.105.111-.149.173H67.558c.204 0 .393-.07.546-.183.219-.164.362-.424.373-.714M41.907 26.041L41.669 26.111 40.067 26.568 40.067 27.482 41.708 27.013 41.906 26.954 44.328 26.264 44.328 26.068 44.141 25.404zM53.066 14.829c-.161 0-.308.046-.44.118-.104.06-.195.137-.272.23-.114.144-.188.32-.203.514-.002.023-.007.047-.007.071v.496l.153-.044.633-.18 4.057-1.161.155-.044h-4.076zM66.226 12.23L68.481 11.586 68.481 10.237 65.875 10.982 65.244 11.163 64.219 11.456 64.219 12.804 65.592 12.412z"/>
        <path fill="#ED8622" d="M68.481 11.586L66.225 12.23 65.592 12.412 67.09 17.774 67.724 17.594 68.481 17.377z"/>
        <path fill="#C83227" d="M63.757 5.849L63.979 6.639 64.611 6.459 66.747 5.849z"/>
        <path fill="#ED8622" d="M24.151 5.85h-2.803l-.851 7.4.073-.182.395-.967-.11-.393c-.156-.563.17-1.157.729-1.318l.094-.026c.1-.22.28-.423.5-.57.23-.156.499-.252.751-.252h1.222c.507 0 .923-.42.923-.934V6.782c0-.514-.416-.933-.923-.933"/>
        <path fill="#F16526" d="M16.585 47.807l-.048-.169-.14 1.219-2.262.645c-.56.162-1.051.77-1.096 1.354l-.013.181-.001.013-.028.347h2.77c.114 0 .23-.019.344-.056.025-.008.047-.015.07-.025.368-.14.699-.44.826-.793l.252-.697.49-1.357-.906.26-.258-.922z"/>
        <path fill="#C83227" d="M56.404 25.212L55.68 25.421 55.86 26.062 56.404 25.906z"/>
        <path fill="#ED8622" d="M19.617 33.365c-.03 0-.061.007-.092.01-.482.044-.983.413-1.148.865l-.02.056 1.32-.376.916-.264 1.02-.29h-1.996z"/>
        <path fill="#FA0" d="M78.67 47.217l-2.743.786-.094.026c.049.033.094.074.134.116.122.124.217.277.268.456l.78 2.796h2.416c.136 0 .264-.034.382-.086l-1.144-4.094z"/>
        <path fill="#F16526" d="M76.7 40.173l-1.436.41c-.042-.006-.084-.014-.13-.014h-6.29l-.56-2.006c-.026-.097-.034-.193-.034-.287-.003-.468.298-.9.762-1.032l.325-.094 2.237-.64.695-.2.192-.055h3.145l.255.911.457 1.638.382 1.37z"/>
        <path fill="#FA0" d="M6.942 35.178L6.356 36.618 5.224 39.39 3.936 42.546 2.415 46.269 2.318 47.12 1.827 51.397 3.514 51.397 6.124 51.397 6.209 50.678 6.84 45.174 7.394 40.335 7.683 37.825 8.236 32.998 8.072 32.408z"/>
        <path fill="#ED8622" d="M16.565 21.57l.221.787.384-.946 2.418-5.934.115-.28-.18.05-2.307.661-1.05.302c-.15.041-.278.115-.39.21-.308.262-.456.69-.339 1.107l1.128 4.043zM32.488 14.404v-2.863l-3.443.984-.079.022-.739.212v4.884l1.164-.334.838-.24.079-.023.13-.038c.075-.227.212-.448.385-.634.195-.21.435-.374.686-.446l2.065-.59h-.163c-.508 0-.923-.42-.923-.934M63.157 18.256c-.063.106-.14.203-.234.28-.05.043-.103.078-.16.111-.07.04-.146.075-.23.098l-1.263.364c-.25-.18-.572-.248-.888-.16l-.661.19h-2.395c-.507 0-.923.42-.923.933v.016l-2.05.584-.243-.87-.264-.947c-.042-.148-.114-.281-.204-.392l-.045-.046c-.2-.214-.48-.339-.778-.336-.092 0-.184.01-.276.036l-.4.114v-1.639l.24-.067-.087-.31.633-.182 4.058-1.16.04.138.126-.182h5.385l.726 2.599c.08.29.033.586-.107.828M55.374 9.102l.982-.281 3.566-1.02.603-.172-.497-1.78H38.64l.952 3.406c.02.081.032.163.035.243l-1.602.458h14.361l2.987-.854zM57.156 46.954c-.427-.085-.753-.463-.753-.918v-1.774l-.126-.456-.268-.962-1.06-3.784-.002-.012-.138-.491-.129-.46-1.06-3.798-.138-.492-.041-.148-.873.25-.424.121v8.708l.75-.214c.56-.159 1.145.171 1.302.74l.028.091.268.961 1.516 5.425.458 1.656h1.928l-.638-2.304-.6-2.139z"/>
        <path fill="#F7961D" d="M37.738 46.97l.32 1.145.233.835.202.723.06-.797.069-.92.023-.316c.007-.09.028-.177.052-.265.041-.14.104-.277.186-.406h-1.145z"/>
        <path fill="#C83227" d="M40.067 46.036c0 .056-.008.108-.016.163l.284-.083-.268-.96v.88z"/>
        <path fill="#F16526" d="M65.33 50.86l-1.89.537h.622l1.428-.006c-.022-.085-.046-.173-.074-.262-.028-.094-.057-.184-.087-.27"/>
        <path fill="#ED8622" d="M42.6 31.883l-.074.021c-.559.161-.887.753-.73 1.317l.735 2.63.42 1.5 1.326 4.748.003.012.048.166V31.39l-1.294.37-.434.124z"/>
        <path fill="#FA0" d="M16.286 40.014l-1.06 2.93-.289.799-.056.156-.558 1.536c.06-.007.122-.017.182-.033l1.303-.373 1.064-.301.068-.022.924-.264 1.5-.43.564-1.561.057-.153.07-.197 1.123-3.098.157-.431-5.049 1.442"/>
        <path fill="#ED8622" d="M44.141 25.404L44.089 25.216 44.022 24.978 44.021 24.973 42.88 20.886 40.408 21.593 40.137 21.67 40.067 21.69 40.067 26.104 40.067 26.568 41.669 26.111 41.907 26.041z"/>
        <path fill="#F16526" d="M13.373 29.325c-.56.161-.887.752-.727 1.318l.308 1.11.78-1.91.288-.702-.214.06-.435.124zM56.403 28.01v4.802l-1.13.324-1.31.375-.522.149-.874.249-.423.122v-4.877l.035-.011.522-.15 1.089-.312c.56-.16.885-.752.728-1.317L54.5 27.3l-.049-.167-.171-.619-.003-.012-.178-.632.83-.235.361-.104.27-.078.118-.032.181.641.078.28.095.34.047.166.323 1.161zM33.7 49.52l-.041-.145-.1-.358-.608-2.176c-.276-.161-.462-.459-.462-.805v-.85l-.048-.171-.245-.88-.498 4.33.247.88.134.481.04.144.157.56.244.867h1.708l-.337-1.19-.192-.687zM76.235 48.6c-.05-.177-.146-.331-.268-.455-.04-.042-.085-.083-.134-.116-.253-.185-.581-.26-.902-.166l-.17.049-.393.114.11.391.83 2.98H77.016l-.78-2.796zM52.53 20.253l.244.873.829-.237.633-.18.117-.036-.243-.87-.264-.949c-.042-.148-.114-.28-.205-.39-.014-.017-.029-.03-.046-.048-.199-.214-.48-.338-.777-.334-.092 0-.183.008-.275.034l-.4.115v.637l.006.023.382 1.362z"/>
        <path fill="#E74A25" d="M37.738 46.97h-4.327c-.17 0-.324-.048-.46-.13l.609 2.177.098.358.041.145.192.688 4.4-1.258-.233-.835-.32-1.146zM12.998 51.397L13.026 51.037 11.763 51.397zM7.36 47.038c-.319-.114-.455-.437-.3-.815l.042-.108-.262-.941-.631 5.504-.086.719h2.474c-.026-.054-.05-.11-.067-.17l-1.17-4.189zM20.965 12.1l.69-1.695c.007-.015.016-.027.023-.041l-.094.026c-.56.162-.885.755-.728 1.318l.11.393zM33.411 9.956h4.615l1.602-.458c-.003-.08-.015-.162-.035-.243L38.64 5.85H33.575v.002c.145.52-.125 1.063-.606 1.27-.04.016-.08.036-.122.049l-1.133.323-2.884.825-.603.172v4.269l4.261-1.218v-.653c0-.127.026-.25.074-.362.127-.303.411-.521.749-.56.034-.003.065-.01.1-.01M16.94 44.706L16.872 44.728 15.808 45.029 15.831 45.112 16.537 47.638 16.585 47.807 16.843 48.728 17.75 48.469 19.365 44.012 17.864 44.442zM32.196 44.135L32.441 45.015 32.489 45.186 32.489 44.607 32.489 42.974 32.489 41.579 32.374 42.569zM55.938 26.343L56.033 26.682 56.08 26.848 56.403 28.01 56.403 26.867 56.403 26.754 56.403 26.577 56.403 25.907 55.86 26.062zM55.315 33.284L55.452 33.776 56.404 37.182 56.404 33.503 56.404 32.975 56.404 32.812 55.273 33.136zM55.878 38.78c-.036.016-.072.034-.113.046l-.294.083-.521.15 1.059 3.785.268.962.126-.037V38.308c-.113.21-.296.378-.525.473M64.243 46.97h-3.247l-.728.209c-.56.16-.888.753-.73 1.318l.754 2.693c.008.033.05.176.064.207h3.084l1.89-.538-.065-.233-1.022-3.657zM40.067 21.417v.273l.07-.02.271-.077 2.472-.707-.001-.006-.51-1.825-.754-2.69-2.47.705-1.005.288c.129.553-.191 1.118-.736 1.275l-1.346.382c-.252.073-.49.238-.684.448-.056.06-.107.122-.154.186h3.924c.358 0 .665.21.818.51.064.13.105.27.105.423v.835zM41.708 27.013l-1.64.47v17.674l.267.96 1.578-.453.487-.137.784-.226 1.144-.327v-2.696l-.048-.167-.003-.013-1.326-4.746-.42-1.5-.735-2.63c-.157-.565.172-1.157.73-1.318l.074-.021.434-.125 1.294-.37V26.265l-2.422.69-.198.06zM21.613 33.365l-3.255.931-2.072 5.718 1.142-.326 3.906-1.116.008-.018c.034-.097.087-.19.15-.276.083-.118.187-.223.305-.312.232-.175.514-.288.783-.288H27.305c.272 0 .515.122.685.312l.531-4.625h-6.908zM14.992 23.98l-.412-1.48-1.003-3.585-1.288 3.156-.97 2.38-.267.655-.48 1.178-1.21 2.965-.967 2.368-.323.79.164.591 1.487 5.32.228.81 1.01-2.483.278-.677 1.21-2.966.505-1.248-.309-1.11c-.159-.567.167-1.158.728-1.32l.435-.123.213-.06.002-.007.143-.35 1.287-3.157.82-2.014-1.28.366zM32.119 49.97L32.079 49.826 31.945 49.344 31.698 48.464 31.535 49.886 31.524 49.984 31.375 51.397 32.52 51.397 32.275 50.529zM54.5 27.3l-.047-.166-.173-.62-.003-.012-.176-.63-1.957.56v2.722l.035-.011.522-.15 1.088-.31c.56-.162.886-.754.729-1.318L54.5 27.3zM52.531 20.253L52.149 18.891 52.144 18.868 52.144 18.891 52.144 20.362 52.144 21.307 52.774 21.126zM74.478 48.418L74.368 48.026 74.073 46.969 70.678 46.969 70.574 46.969 69.308 46.969 69.955 49.285 70.065 49.679 70.555 51.397 71.822 51.397 71.925 51.397 75.32 51.397z"/>
        <path fill="#ED8622" d="M32.005 33.484c-.131-.071-.28-.119-.438-.119h-3.045l-.532 4.625c.145.167.237.383.237.622v11.852c0 .197.064.38.168.534.016.02.033.042.05.06.05.056.102.11.161.155.147.108.325.179.52.184h2.249l1.113-9.818V34.3c0-.352-.197-.655-.483-.815"/>
        <path fill="#F7961D" d="M43.405 15.338H41.33l.255.922.029.104.753 2.69.511 1.826.001.006 1.141 4.088.001.003.068.24.05.187.188.664V16.27c0-.236-.092-.449-.236-.613-.17-.194-.414-.32-.687-.32"/>
        <path fill="#FA0" d="M68.48 6.783v3.453l-2.604.745-.632.181-1.026.293v-.567c0-.512-.414-.932-.921-.932H52.388l2.987-.853.98-.282 3.566-1.02.604-.172 3.455-.99.631-.18 2.136-.61h.811c.482 0 .874.377.915.856.002.026.008.051.008.078M37.404 18.632l-1.347.383c-.251.072-.488.239-.683.448-.056.059-.108.121-.155.185H30.1l.16-1.384.024-.21.066-.557.025-.217c.01-.09.034-.18.064-.271.075-.228.212-.45.385-.635.195-.209.435-.374.686-.446l2.064-.59h4.005l.053.188.111.396.051.184.322 1.148.015.06c.005.016.005.03.01.044.129.554-.192 1.118-.736 1.274"/>
        <path fill="#ED8622" d="M79.4 36.256H75.606l.255.91.458 1.639.381 1.368.945 3.378 1.024 3.666 1.145 4.094c.316-.148.54-.479.54-.853l-.032-2.233V37.191c0-.514-.415-.935-.922-.935"/>
        <path fill="#FA0" d="M54.492 44.316l-.269-.96-.027-.093c-.157-.568-.742-.898-1.302-.739l-.75.214v6.509l.028 1.217c0 .17.048.324.125.462.103.18.263.324.456.402.106.044.22.07.34.07h3.373l-.43-1.542-1.544-5.54z"/>
        <path fill="#C83227" d="M60.382 18.95l-.661.189h1.595c-.015-.012-.03-.021-.046-.03-.251-.179-.572-.248-.888-.16"/>
        <path fill="#F7961D" d="M54.929 25.635L55.292 25.531 55.56 25.453 55.68 25.421 56.403 25.211 56.403 22.8 56.403 21.693 56.403 20.766 56.403 20.5 56.403 20.088 54.353 20.673 54.237 20.709 53.603 20.889 52.774 21.126 52.144 21.307 52.144 21.717 52.144 21.985 52.144 22.654 52.144 22.912 52.144 24.019 52.144 26.432 54.1 25.871z"/>
        <path fill="#ED8622" d="M69.955 49.285L69.307 46.97 66.425 46.97 65.614 46.97 64.243 46.97 65.264 50.627 65.329 50.859 65.416 51.129 65.49 51.39 66.851 51.39 67.672 51.39 70.249 51.39 70.555 51.39 70.065 49.679z"/>
        <path fill="#C83227" d="M43.76 50.435c-.1.088-.258.251-.372.501-.082.18-.113.345-.126.461.036-.003.086-.007.144-.016.06-.008.149-.021.24-.052.1-.034.192-.084.276-.146.245-.187.406-.48.406-.81v-.271c-.27.072-.444.196-.559.323l-.008.01"/>
        <path fill="#FA0" d="M43.185 45.3l-.785.226-.487.138-1.578.452-.284.083c-.077.436-.452.768-.905.77h-.263c-.082.13-.144.266-.185.406-.025.088-.045.176-.052.266l-.024.314-.07.922-.059.796-.12 1.724h4.89v-.008c.027-.119.069-.343.125-.453.094-.186.22-.36.373-.502.003-.004.004-.006.008-.008.167-.151.357-.267.559-.324v-5.128l-1.143.327z"/>
        <mask id="prefix__b" fill="#fff">
            <use xlink:href="#prefix__a"/>
        </mask>
        <path fill="#929497" d="M87.154 57.091L90.571 57.091 90.571.156 87.154.156zM103.943 32.07c-.968.682-2.223 1.1-3.282 1.1-1.496 0-1.76-.572-1.76-1.827 0-1.41.44-1.85 1.915-1.85h3.127v2.576zm-2.599-8.919c-1.1 0-2.443.176-3.302.418l.198 1.08c.992-.199 2.114-.353 3.17-.353 1.763 0 2.533.485 2.533 1.96v2.092h-3.171c-2.114 0-3.149.704-3.149 2.973 0 1.916.882 2.995 2.775 2.995 1.41 0 2.599-.418 3.633-1.057l.088.837h1.101v-7.84c0-2.004-1.1-3.105-3.876-3.105zM112.136 33.17c-2.003 0-2.775-.594-2.775-2.51v-3.853c0-1.916.772-2.511 2.775-2.511.638 0 1.388.067 2.29.221l.155-1.057c-.75-.2-1.718-.309-2.445-.309-3.017 0-4.052 1.388-4.052 3.7v3.765c0 2.312 1.035 3.7 4.052 3.7.727 0 1.695-.11 2.445-.309l-.155-1.057c-.902.154-1.652.22-2.29.22M123.435 32.07c-.968.682-2.224 1.1-3.282 1.1-1.497 0-1.76-.572-1.76-1.827 0-1.41.44-1.85 1.914-1.85h3.128v2.576zm-2.6-8.919c-1.1 0-2.442.176-3.301.418l.198 1.08c.991-.199 2.114-.353 3.17-.353 1.763 0 2.533.485 2.533 1.96v2.092h-3.171c-2.114 0-3.15.704-3.15 2.973 0 1.916.882 2.995 2.776 2.995 1.409 0 2.599-.418 3.632-1.057l.089.837h1.101v-7.84c0-2.004-1.101-3.105-3.876-3.105zM134.512 31.806c-1.012.813-2.158 1.364-3.478 1.364-1.455 0-1.851-.594-1.851-1.827v-4.888c0-1.455.574-2.16 1.982-2.16 1.035 0 2.18.133 3.347.375v7.136zm0-12.818v4.516c-1.233-.243-2.18-.353-3.302-.353-2.423 0-3.304 1.343-3.304 3.304v4.888c0 1.938.946 2.973 3.039 2.973 1.19 0 2.532-.418 3.612-1.233l.066 1.013h1.167V18.812l-1.278.176zM140.26 27.005c0-1.807.728-2.753 2.732-2.753 2.003 0 2.642.946 2.642 2.753v.969h-5.374v-.969zm6.63 2.115v-2.071c0-2.203-.882-3.898-3.898-3.898-3.017 0-4.009 1.695-4.009 3.898v3.37c0 2.333.97 3.897 3.987 3.897 1.299 0 2.708-.242 3.7-.594l-.22-1.035c-1.058.285-2.29.506-3.393.506-2.136 0-2.797-.815-2.797-2.731V29.12h6.63zM162.217 23.151c-1.3 0-3.259.616-4.492 1.19-.287-.75-.925-1.19-2.07-1.19-1.3 0-3.216.64-4.361 1.19l-.087-.97h-1.123v10.725h1.277v-8.523c1.342-.705 3.236-1.232 4.119-1.232.747 0 1.166.285 1.166 1.079v8.676h1.277v-8.523c1.342-.705 3.106-1.232 4.119-1.232.748 0 1.166.285 1.166 1.079v8.676h1.277v-8.523c0-1.475-.594-2.422-2.268-2.422M174.508 23.371L171.181 33.193 167.879 23.371 166.58 23.371 170.213 34.096 170.941 34.096 169.332 38.433 170.587 38.433 172.173 34.096 175.807 23.371z" mask="url(#prefix__b)"/>
    </g>
</svg>
